<?xml version="1.0" encoding="UTF-8" standalone="no"?>
<svg width="36px" height="30px" viewBox="0 0 36 30" version="1.1" xmlns="http://www.w3.org/2000/svg" xmlns:xlink="http://www.w3.org/1999/xlink">
    <!-- Generator: Sketch 40.3 (33839) - http://www.bohemiancoding.com/sketch -->
    <title>Slice 1</title>
    <desc>Created with Sketch.</desc>
    <defs></defs>
    <g id="Page-1" stroke="none" stroke-width="1" fill="none" fill-rule="evenodd">
        <path d="M19.9260502,28.5 L4.8000002,28.5 C2.9774604,28.5 1.5,27.0778465 1.5,25.3235302 L1.5,4.6764708 C1.5,2.9221544 2.9774604,1.5 4.8000002,1.5 L31.2000017,1.5 C33.022541,1.5 34.5,2.9221544 34.5,4.6764708 L34.5,25.3235312 C34.5,27.0778465 33.022541,28.5 31.2000008,28.5 L28.467226,28.5" id="Shape" stroke="#FFFFFF" stroke-width="3"></path>
        <path d="M2.7738972,2.5422795 L16.9313793,18.1256755 C17.5475368,18.629803 18.4524631,18.629803 19.0686207,18.1256755 L33.2261048,2.5422795" id="Shape" stroke="#FFFFFF" stroke-width="3"></path>
    </g>
</svg>