<?xml version="1.0" encoding="UTF-8" standalone="no"?>
<svg width="31px" height="48px" viewBox="0 0 31 48" version="1.1" xmlns="http://www.w3.org/2000/svg" xmlns:xlink="http://www.w3.org/1999/xlink">
    <!-- Generator: Sketch 40.3 (33839) - http://www.bohemiancoding.com/sketch -->
    <title>Slice 1</title>
    <desc>Created with Sketch.</desc>
    <defs></defs>
    <g id="Page-1" stroke="none" stroke-width="1" fill="none" fill-rule="evenodd">
        <g id="down" fill="#2C363D">
            <path d="M0,0 L30.3979797,0 L30.3979797,1.6020203 L0,1.6020203 L0,0 L0,0 Z M0,47.6409912 L30.3979797,47.6409912 L30.3979797,46.0390015 L0,46.0390015 L0,47.6409912 L0,47.6409912 Z M15.1990051,3.6479797 L11.0979919,7.75 L19.3009643,7.75 L15.1990051,3.6479797 L15.1990051,3.6479797 Z M15.1990051,43.5509949 L19.3009643,39.4490052 L11.0979919,39.4490052 L15.1990051,43.5509949 L15.1990051,43.5509949 Z M14.3979797,35.7785454 L14.3979797,10.2765923 L16,10.2765923 L16,35.7785454 L14.3979797,35.7785454 L14.3979797,35.7785454 Z" id="Shape"></path>
        </g>
    </g>
</svg>