<?xml version="1.0" encoding="UTF-8" standalone="no"?>
<svg width="80px" height="93px" viewBox="0 0 80 93" version="1.1" xmlns="http://www.w3.org/2000/svg" xmlns:xlink="http://www.w3.org/1999/xlink">
    <!-- Generator: Sketch 40.3 (33839) - http://www.bohemiancoding.com/sketch -->
    <title>Slice 1</title>
    <desc>Created with Sketch.</desc>
    <defs></defs>
    <g id="Page-1" stroke="none" stroke-width="1" fill="none" fill-rule="evenodd">
        <path d="M3.2809753,92.8789978 L76.5589904,92.8789978 C78.3979949,92.8789978 79.839981,91.440979 79.839981,89.6019897 L79.839981,3.2810059 C79.8399811,1.440979 78.397995,0 76.5589905,0 L21.6019897,0 C21.3589782,0 21.0389709,0 20.8009643,0.0779724 C20.7189636,0.0779724 20.6409912,0.1600036 20.6409912,0.1600036 C20.3980103,0.2380066 20.2379761,0.3200073 20,0.3979797 C19.9219666,0.4799804 19.8399658,0.4799804 19.7619934,0.5589904 C19.519989,0.7189941 19.2810059,0.8789672 19.1209717,1.1210021 L0.8009949,22.7189941 C0.5589905,22.9609985 0.3979798,23.2809753 0.2380066,23.6019897 C0.1599732,23.6799926 0.1599732,23.8399963 0.1599732,23.921997 C0.0779724,24.1600037 0.0779724,24.3979797 0,24.6409912 L0,89.519989 C0,91.440979 1.519989,92.8789978 3.2809753,92.8789978 L3.2809753,92.8789978 L3.2809753,92.8789978 Z M18.3200073,12.2380066 L18.3200073,21.6799927 L10.3199768,21.6799927 L18.3200073,12.2380066 L18.3200073,12.2380066 Z M6.5589905,28.1600037 L21.6019898,28.1600037 C23.4409791,28.1600037 24.8789979,26.7189637 24.8789979,24.8789673 L24.8789979,6.5589905 L73.2809907,6.5589905 L73.2809907,86.3199768 L6.5589905,86.3199768 L6.5589905,28.1600037 L6.5589905,28.1600037 Z" id="Shape" fill="#000000"></path>
        <path d="M63.5199738,35.2809753 L16.3199768,35.2809753 C14.480011,35.2809753 13.0389709,36.7189941 13.0389709,38.5589904 C13.0389709,40.3979797 14.4800109,41.8399963 16.3199768,41.8399963 L63.5199737,41.8399963 C65.3589935,41.8399963 66.8009948,40.3979797 66.8009948,38.5589904 C66.8009949,36.7189941 65.3589935,35.2809753 63.5199738,35.2809753 L63.5199738,35.2809753 L63.5199738,35.2809753 Z" id="Shape" fill="#000000"></path>
        <path d="M63.5199738,51.1209717 L16.3199768,51.1209717 C14.480011,51.1209717 13.0389709,52.5589905 13.0389709,54.3979798 C13.0389709,56.2379761 14.4800109,57.6799927 16.3199768,57.6799927 L63.5199737,57.6799927 C65.3589935,57.6799927 66.8009948,56.2379761 66.8009948,54.3979798 C66.8009949,52.6409912 65.3589935,51.1209717 63.5199738,51.1209717 L63.5199738,51.1209717 L63.5199738,51.1209717 Z" id="Shape" fill="#000000"></path>
    </g>
</svg>