<?xml version="1.0" encoding="UTF-8" standalone="no"?>
<svg width="32px" height="32px" viewBox="0 0 32 32" version="1.1" xmlns="http://www.w3.org/2000/svg" xmlns:xlink="http://www.w3.org/1999/xlink">
    <!-- Generator: Sketch 40.3 (33839) - http://www.bohemiancoding.com/sketch -->
    <title>Slice 1</title>
    <desc>Created with Sketch.</desc>
    <defs></defs>
    <g id="Page-1" stroke="none" stroke-width="1" fill="none" fill-rule="evenodd">
        <path d="M30.9769993,0 L1.023,0 C0.458,0 0,0.458 0,1.023 L0,30.9789994 C0,31.5419998 0.458,32 1.023,32 L17.6820004,32 L18.7050011,32 L22.917001,32 L25.0590012,32 C25.6230004,32 26.0800011,31.5419998 26.0800011,30.9790001 C26.0800011,30.4150009 25.6230004,29.9580002 25.0590012,29.9580002 L22.917001,29.9580002 L18.7050011,29.9580002 L18.703001,29.9580002 L18.703001,15.698 L26.460001,15.698 C27.0250015,15.698 27.4820004,15.2399998 27.4820004,14.6750002 C27.4820004,14.1100006 27.0249997,13.6520004 26.460001,13.6520004 L18.703001,13.6520004 L18.703001,8.8400002 C18.703001,8.2750006 18.2460003,7.8180004 17.6820011,7.8180004 L15.6470013,7.8180004 C15.0820017,7.8180004 14.625001,8.2760001 14.625001,8.8400002 C14.625001,9.4049998 15.0830012,9.863 15.6470013,9.863 L16.658001,9.863 L16.658001,29.954998 L10.1310006,29.954998 L10.1310006,21.3049984 L11.0570002,21.3049984 C11.6219998,21.3049984 12.0790005,20.8479977 12.0790005,20.2839985 C12.0790005,19.718998 11.6210003,19.2619991 11.0570002,19.2619991 L9.3520002,19.2619991 L9.1079998,19.2619991 L4.822,19.2619991 C4.2569999,19.2619991 3.8000002,19.7189998 3.8000002,20.2839985 C3.8000002,20.8479977 4.2580004,21.3049984 4.822,21.3049984 L8.0860004,21.3049984 L8.0860004,29.954998 L2.0460004,29.954998 L2.0460004,2.0450001 L8.0860004,2.0450001 L8.0860004,14.2869997 C8.0860004,14.8519993 8.5430002,15.3099995 9.1080007,15.3099995 C9.6730012,15.3099995 10.130001,14.8519993 10.130001,14.2869997 L10.130001,2.0450001 L22.6430015,2.0450001 L22.6430015,7.573 C22.6430015,8.1379996 23.1020011,8.5950003 23.6650009,8.5950003 C24.2280007,8.5950003 24.6870003,8.1370001 24.6870003,7.5730005 L24.6870003,2.0450001 L29.9529991,2.0450001 L29.9529991,30.9769993 C29.9529991,31.5409985 30.4109993,31.9989987 30.973999,31.9989987 C31.5419998,32 32,31.5419998 32,30.9790001 L32,1.023 C32,0.458 31.5419998,0 30.9769993,0" id="Shape" fill="#AFA376"></path>
    </g>
</svg>