<?xml version="1.0" encoding="UTF-8" standalone="no"?>
<svg width="58px" height="81px" viewBox="0 0 58 81" version="1.1" xmlns="http://www.w3.org/2000/svg" xmlns:xlink="http://www.w3.org/1999/xlink">
    <!-- Generator: Sketch 40.3 (33839) - http://www.bohemiancoding.com/sketch -->
    <title>Slice 1</title>
    <desc>Created with Sketch.</desc>
    <defs></defs>
    <g id="Page-1" stroke="none" stroke-width="1" fill="none" fill-rule="evenodd">
        <path d="M28.5761402,81 L27.753806,80.2804522 C22.7170046,75.2436487 18.0913703,69.8984744 13.876903,64.2449213 C4.72842611,51.7043119 0,40.8083749 0,31.7626887 C0,13.9796953 12.5406084,0 28.47335,0 C44.4060915,0 57.0494901,13.9796953 57.0494901,31.7626887 C57.0494901,52.4238558 30.4263952,79.1497431 29.2956841,80.2804522 L28.5761402,81 L28.5761402,81 L28.5761402,81 L28.5761402,81 L28.5761402,81 Z M28.6581089,4 C14.8418921,4 4,16.1851349 4,31.728378 C4,49.0945946 24.6283784,70.8743214 28.6581089,75 C32.6878393,70.8743214 53.4121622,48.6148649 53.4121622,31.8243243 C53.4121622,16.1851349 42.570271,4 28.6581089,4 L28.6581089,4 L28.6581089,4 L28.6581089,4 L28.6581089,4 Z" id="Shape" fill="#FFFFFF"></path>
        <path d="M28.5467683,43.6999989 C20.7749064,43.6999989 14.6000004,37.4186287 14.6000004,29.6467667 C14.6000004,21.8749046 20.8813685,15.6999989 28.6532305,15.6999989 C36.4250924,15.6999989 42.6000004,21.981367 42.6000004,29.7532291 L42.6000004,29.7532291 C42.6000004,37.4186287 36.3186302,43.6999989 28.5467683,43.6999989 L28.5467683,43.6999989 L28.5467683,43.6999989 L28.5467683,43.6999989 L28.5467683,43.6999989 Z M28.5551571,19.7000008 C22.9946186,19.7000008 18.6000004,24.1843055 18.6000004,29.744844 C18.6000004,35.3053825 23.0843051,39.6999989 28.5551571,39.6999989 C34.0260092,39.6999989 38.5103155,35.2156942 38.5103155,29.7448422 C38.6000002,24.1843055 34.1156955,19.7000008 28.5551571,19.7000008 L28.5551571,19.7000008 L28.5551571,19.7000008 L28.5551571,19.7000008 L28.5551571,19.7000008 L28.5551571,19.7000008 Z" id="Shape" fill="#FFFFFF"></path>
    </g>
</svg>