<?xml version="1.0" encoding="UTF-8" standalone="no"?>
<svg width="75px" height="70px" viewBox="0 0 75 70" version="1.1" xmlns="http://www.w3.org/2000/svg" xmlns:xlink="http://www.w3.org/1999/xlink">
    <!-- Generator: Sketch 40.3 (33839) - http://www.bohemiancoding.com/sketch -->
    <title>Slice 1</title>
    <desc>Created with Sketch.</desc>
    <defs></defs>
    <g id="Page-1" stroke="none" stroke-width="1" fill="none" fill-rule="evenodd">
        <path d="M58.7719383,32.4541321 C49.8261909,32.4541321 42.5448723,25.1751328 42.5448723,16.2270661 L47.1811791,16.2270661 C47.1811791,22.6182118 52.3807946,27.8178273 58.7719384,27.8178273 C65.1630822,27.8178273 70.3627015,22.6182118 70.3627015,16.2270661 C70.3627015,9.8359204 65.1630859,4.6363044 58.7719383,4.6363044 L17.0452003,4.6363044 C10.6540536,4.6363044 5.4544382,9.8359204 5.4544382,16.2270656 C5.4544382,22.6182108 10.6540537,27.8178268 17.0452003,27.8178268 C23.4363469,27.8178268 28.6359615,22.6182113 28.6359615,16.2270656 L33.2722644,16.2270656 C33.2722644,25.1751323 25.9909496,32.4541316 17.0452003,32.4541316 C8.099451,32.4541316 0.8181343,25.1751323 0.8181343,16.2270656 C0.8181343,7.2789989 8.0994482,0 17.0451984,0 L58.7719364,0 C67.7176876,0 74.9990063,7.2789989 74.9990063,16.227066 C74.9990063,25.1751331 67.7176895,32.4541321 58.7719383,32.4541321 L58.7719383,32.4541321 Z" id="Shape" fill="#AFA570"></path>
        <polygon id="Shape" fill="#AFA570" points="33.2722626 27.8178272 42.5448723 27.8178272 42.5448723 32.4541321 33.2722626 32.4541321 33.2722626 27.8178272"></polygon>
        <polygon id="Shape" fill="#AFA570" points="14.727046 37.090435 19.3633499 37.090435 19.3633499 69.5445709 14.727046 69.5445709"></polygon>
        <polygon id="Shape" fill="#AFA570" points="28.6359596 37.090435 33.2722625 37.090435 33.2722625 69.5445709 28.6359596 69.5445709 28.6359596 37.090435"></polygon>
        <polygon id="Shape" fill="#AFA570" points="42.5448723 37.090435 47.1811791 37.090435 47.1811791 69.5445709 42.5448723 69.5445709"></polygon>
        <polygon id="Shape" fill="#AFA570" points="56.4537849 37.090435 61.0900917 37.090435 61.0900917 69.5445709 56.4537849 69.5445709"></polygon>
        <path d="M14.8869972,16.227066 L10.2506933,16.227066 C10.2506933,12.3928413 13.3709268,9.2726087 17.2051506,9.2726087 L17.2051506,13.9089136 C15.9278479,13.9089136 14.8869972,14.9497643 14.8869972,16.227066 L14.8869972,16.227066 Z" id="Shape" fill="#AFA570"></path>
        <path d="M56.613739,16.227066 L51.9774361,16.227066 C51.9774361,12.3928413 55.0976715,9.2726087 58.9318924,9.2726087 L58.9318924,13.9089136 C57.6545906,13.9089136 56.613739,14.9497643 56.613739,16.227066 L56.613739,16.227066 Z" id="Shape" fill="#AFA570"></path>
    </g>
</svg>